Project 1
…
# We are trying to calculate total education expendiutre in dollars but the mutate function appears to not work

# creates a new variable to calculate the total government expenditure on education in dollars
final_dataset<-final_dataset %>%
  mutate("Log10 of Total_edu_exp (in dollars)" = log10(`Government expenditure on education, total (% of GDP)`)+log10(`GDP(Current US$)`)) #calculations in log ease understanding and avoid large numeric values

final_dataset

## # A tibble: 1,245 × 9
##    Country      Year life_expectancy `Government expenditure …` `GDP(Current U…`
##    <chr>       <dbl>           <dbl>                      <dbl>            <dbl>
##  1 Singapore    2019            85.4                       2.63          3.75e11
##  2 Spain        2015            84.9                       4.29          1.20e12
##  3 Singapore    2015            84.9                       2.86          3.08e11
##  4 Spain        2010            84.6                       4.86          1.42e12
##  5 Switzerland  2015            84.5                       4.94          7.02e11
##  6 Luxembourg   2015            84.3                       3.92          6.01e10
##  7 Italy        2015            84.3                       4.07          1.84e12
##  8 Italy        2010            84.2                       4.33          2.14e12
##  9 Switzerland  2010            84.2                       4.77          6.03e11
## 10 Australia    2015            84.2                       5.31          1.35e12
## # … with 1,235 more rows, and 4 more variables:
## #   `GDP per capita (current US$)` <dbl>, Population <dbl>, Sex <chr>,
## #   `Log10 of Total_edu_exp (in dollars)` <dbl>
…
